review_date,company_addresses,company_links,user_name,source_id,review_advantages,review_text,user_links,review_rate_common,company_categories,company_latitude,company_phones,company_region,review_disadvantages,review_link,company_longitude,company_name
,,,Haryushin Vladislav,2,,"Отвратительный персонал. Хотели сходить специально на цыплёнка, который в акции сейчас. Пришли, заказали к цыплёнку салат, попить. Что интересно, официантка ходила минут 5-6, принесла салаты. Спустя ещё около минут 10, когда мы успели их съесть, она подошла и сообщила следующую новость: ""Такого цыплёнка в наличии нет, мне только что это сказали. И в ближайшее время не появится. Выберете что-нибудь другое"". Конечно же мы ушли и впредь не появимся в этой сети кафе.
Могли бы убрать из меню, либо сказать заранее, а не через 15 минут после заказа. И что, в кафе курицы найти не могли? Половина блюд из неё делается.
Никому не советую туда идти.
P.S. случилось это в кафе около танка(бывшее помещение Dolce Vita).",https://www.facebook.com/app_scoped_user_id/1698026480409090/,,,,,,,,,
,,,Ольга Данилова,2,,Мошенник. Никогда не пользуйтес услугами данного челоаека. Берет предоплату и кидает.,http://vk.com/id35740223,,,,,,,,,
,,,Ольга Порошина,2,," кидалово сплошное, обман на обмане это про   АвтоРазбор143
  , разговаривают хорошо, а вот запчасти отправляют с браком, путают модели  и пропадают. Трубку не берут, менять и возвращать не хотят, я бы никому не советовал связываться с данной компанией, через транспортные компании.
Наша маленькая история:
Нам нужна  была проводка на пассат б6, созвонились  да есть все сходиться по коду.
Дальше  все, что нам нужно было обсудили составили   список  запчастей договорились о цене,
Скинули задаток и стали  ждать когда все соберут, объявились эти ребята спустя  две недели( хотя говорили все соберут за три дня) все мол оплачивайте, собрали ваши запчасти.
Хорошо оплачиваем  и опять ждем.

Приходят наши запчасти транспортной компанией  открываем посылку:
 Из 23 позиций находим только 17
 Остальное в ужасном состоянии все с дефектом (хотя  уверяли и фото присылали все в идеале)
Потолок с б6 положили потолок от  пассат СС  который выбросить можно,
 Коллектор  в место СДА(TSI.) положили  от двигателя от BZB
  Ну и так далее, практически по всем позициям .
Звоним  с начала говорят как не может быть все подойдет, Мы  предложили приехать к нам и установить, после чего согласились что надо менять на другие запчасти,   а то что не положили (забыли) обязательно пришлют, но только этим и ограничилось все трубку не берут, пропали полностью игнорируют нас. Никому не советую заказывать там запчасти. ¶

Внимание!!! Осторожно мошенник!!!

 Итак: Немчин Алексей Владимирович, 16.06.1983 г.р., телефон +79123311313 , е-мэйл ar143@mail.ru
ИП Титова Алиса Андреевна.
610044, г. Киров, ул. Луганская, д. 41-г
Андреевна.
610044, г. Киров, ул. Луганская, д. 41-г
+7 (8332) 47-22-11

",http://vk.com/id36273686,,,,,,,,,
,,,Алена Валерьева ,2,,"ужасней компании нет. их менеджеры до выноса мозга ломятся каждый день в домофон, чтоб подключить услуги. ",http://vk.com/id108790541,,,,,,,,,
,,,Татьяна Бушмелева (батуева),2,,"В мае 2015 года купила радиотелефон panasonic, работу которого продавец проверить отказался. Он также отказался выдать деньги обратно и дать жалобную книгу. По какому праву? В начале марта радиотелефон перестал работать, вызывала мастера, который проверил все контакты и сказал, что дело в базе, которая перестала заряжать трубку. Я сдала радиотелефон в ремонт (Октябрьский, 118-а), регулярно звоню туда с сотового, но до сих пор никаких результатов, хотя прошел почти месяц. Прошу либо ускорить ремонт телефона, либо выдать новый телефон или же вернуть деньги. Поскольку гарантия еще не кончилась. С самого начала ваше обслуживание ужасное. Татьяна Бушмелева, журналист. ",http://vk.com/id73685665,,,,,,,,,
,,,Лейсан Люкшина,2,,"Моя кухня очень сложная - с выступом, коробом. Чтобы придумать красивую и еще удобную кухню обошла много мест. Мне предложили оптимальный вариант, зашили все стеновой панелью. Даже выступ обыграли так, чтобы он не мешал мне готовить. Кухня очень маленькая, но мест для хранения получилось достаточно. Я довольна! Спасибо!",http://vk.com/id237613057,,,,,,,,,
,,,Agropromtehnikaotzyv Агропромтехника,2,,"Отзыв клиента компании ЗАО ""Агропромтехника"":Заказали сушилку С-20 Агропромтехники по программе 1432, которая дает существенную скидку. Свердловская область с капризным климатом, поэтому выбирали оборудование опираясь в том числе на опыт наших ближайших коллег. Оказалось, что многие используют агрегаты Агропромтехники и положительно о них отзываются. 

",http://twitter.com/Agropromteh_otz,,,,,,,,,
,,,МОЛОМ -,2,,"Добрый день, уважаемые посетители нашей страницы! Хотим поделиться с вами очередным отзывом одного из наших клиентов: 
Решили заняться бизнесом и организовать цех по переработки макулатуры. Сырья предостаточно. Оборудование приобрели в ТД «КМЗ» двухвальный шредер ДШ. С точки зрения качества станок собран отлично. Не то, что Китай, которого сейчас на рынке очень много. Производительность шредера устраивает полностью. Фактически, за полгода работы все первоначальные затраты на покупку оборудования мы уже вернули. Начинаем работать на прибыль. 
Сергей Геннадьевич – руководитель производства",http://twitter.com/MOLOM_otzyvy,,,,,,,,,
,,,Александр Кудреватых,2,,Отличная компания-отзывчивость и профессионализм в одном месте. Всем рекомендую!,http://vk.com/id26536565,,,,,,,,,
,,,Вячеслав Федотов,2,,Что то добавить еще о порядочности этого ( ООО ) нет слов. Наслышаны и видели ( угораздило  пустить и терпеть обещания) убежала с долгами  100 .000 рублей. Дела по долгам рассматривает суд. Одно заседание было. Враньё и детский лепет что рассчиталась.  Обязательно заеду к арендодателю предупредить о её( честном слове ). Чтоб был готов к её фокусам и честным глазкам.  )))),http://www.odnoklassniki.ru/profile/78285764,,,,,,,,,
,,,Мартынова Светлана,2,,"Очень здорово! Добродушная команда профессионалов, влюбленных в свое дело! Спасибо вам!!! Спасибо специалисту Елене Анатольевне за внимательность, доступное объяснение по поводу ухода за полостью рта! После вчерашнего посещения, появилось желание прийти в вашу клинику и наблюдаться у ваших стоматологов.",http://twitter.com/Martisha43,,,,,,,,,
,,,Иришка Помелова,2,,"Добрый день! Хочу поделится горьким опытом обращения в салон оптики ""Очки"", по адресу Ленина 78. 
20 марта обратилась в оптику с целью исправления оправы(очки новые, но на них случайно наступил ребенок, немного прогнулась оправа). Оправу мне исправили, к этому претензий нет, но испортили очковые линзы. При исправлении оправы мастер их нагревал и, скорее всего, случайно задел линзы. Т.к линзы не простые, а с антибликовым покрытие, на линзах остались следы его пальцев, которые ничем не стираются, нарушен антибликовым слой, в очках ходить не возможно. Мастер признавать свою вину отказался. Написала претензию. Конечно, на претензию мне ответили, что мастер все сделал правильно, вину свою признавать отказываются. Хотела поговорить непосредственно с руководителем, но его постоянно нет не месте, на звонки мне отвечают, что директор вышел, когда будет не знаем. Оставила номер для связи, звонка не последовало. Мои действия: написала в общество защиты прав потребителей. У меня вопрос, зачем нужно портить свою репутацию? ",http://vk.com/id67556006,,,,,,,,,
,,,Евгений Хорошавин,2,,"Добрый день! Хочу поделиться со всему своими впечатлениями от работы с данной фирмой. 
Номер договора 33-16/СВ от 18 января 2016 года. Место строительства - Коринка, Нижегородская область. 

Перед тем как выбрать подрядчика провел большую работу. Отправил запрос стоимости около 10 фирмам, из ценовых предложений оставил 3 варианта. Далее стал изучать отзывы о компаниях, читать различные форумы, общаться с людьми. По итогу остановился на стройсявятке. 

На подписание договора приехал менеджер Холстинин Денис, подписали документы, осмотрели участок. В целом общение с ним мне понравилось. Видно понимание технологии, а так же добродушное отношение. Срок начала работ назначили на 1 марта. 

1 марта никто не приехал. За несколько дней до этого позвонил мастер Андрей и сообщил о некоторых задержках в производстве - это не понравилось. У меня довольно мало свободного времени и поэтому поставленные сроки я привык соблюдать, чего и требовал от подрядчика. 

По итогу приехали 5 марта с утра. Сначала прибыли монтажники фундамента (винтовые сваи). Бригадир - Костя. По виду мне показался небольшим профессионалом, но дело свое знает и в дальнейшем общении показал себя грамотным спецом - тут ставлю плюс. 

Далее приехали сами ребята и материал. Бригадир - Смирнов Илья. Довольно молодой парень, но по технологии к нему вопросов не возникло. Материал каркаса оцениваю на твердую 5 - чисто визуально очень понравилось. 

В процессе работы бывали случаи, когда заезжал на объект в 9-10 утра, но ребят еще не было, объясняли это тем, что работали до поздна (по словам соседей так оно и было). Тем не менее этот момент вызвал у меня недовольство, потому что хотелось бы пообщаться с непосредственными исполнителями работ. 

По итогу построили все в срок около 1,5 месяцев, по качеству работ замечаний нет, очень аккуратно и профессионально. В срок, указанный в договоре уложились. Приглашал друзей-строителей, их вердикт - сделано на совесть. 

Как говориться по результатам проверки я поставил больше плюсов, чем минусов, поэтому всем рекомендую данную компанию. Если брать во внимание опыт работы/цена/качество/соответствие технологии, то думаю в наших краях подобного не найти. 

Спасибо вам за проделанную работу, я доволен. 

С уважением, Хорошавин Евгений. НН
",http://www.odnoklassniki.ru/profile/568708765010,,,,,,,,,
,,,МОЛОМ -,2,,"Делимся с Вами отзывом одного из наших клиентов Виктора Осипова: Работаем на дисковой рубительной машине МОЛОМ больше года, никаких претензий к оборудованию нет. Отдельно хотели бы отметить индивидуальный подход к заказчику со стороны сервисной службы предприятия. Специально для нас сделали большой приемник на ДРМ-4, чтобы еще удобнее было загружать материал. ",http://twitter.com/MOLOM_otzyvy,,,,,,,,,
,,,Agropromtehnikaotzyv Агропромтехника,2,,"Отзыв клиента компании ЗАО ""Агропромтехника"":Для сушки ржи, овса и ячменя еще в далеком 2002 купили зерносушилку С-20 (производство «Агропромтехника»). Износ оборудования конечно есть, возникают мелкие проблемы, но мы их быстро решаем. А в целом, работой сушилки довольны.

",http://twitter.com/Agropromteh_otz,,,,,,,,,
,,,Валентин Савиных,2,,Интернет-сайт Малмыжского психоневрологического интерната - малмыжинтернат.рф/,http://vk.com/id20002978,,,,,,,,,
,,,Александр  Борцов,2,,"Отличное место для проведения досуга за настольными играми. На днях играли с коллегами в ""Денежный поток"". Поскольку мы новички, то нам рассказали все правила и сопровождали 2,5 часовую игру, помогая разобраться в деталях игры. Появилось желание играть почаще и вдумчиво. Стоимость удовольствия составила 150 руб / чел. Спасибо!",http://vk.com/id2950311,,,,,,,,,
,,,Анжела Преображенская,2,,"Отвратный магазинишка на Дерендяева 1. Всегда грязно, магазин как сарай, ассортимент маленький. Торгашки вечно недовольные. Раньше работала старуха, как не зайдешь или трындит со знакомыми, или щелкает семечки. Сейчас правда ее убрали или сама ушла. Теперь не лучше, постоянно цыкают на пожилых покупателей, хамят в открытую. Еще и листовки по домам отправляют. Постыдились бы! Хозяин куда смотришь? Столько желающих работать, а ты держишь этих засранок! Себе в убыток работаешь!",http://vk.com/id293672088,,,,,,,,,
,,,Иван Иванов,2,,Рекомендую! Добросовестный!,http://vk.com/id234819876,,,,,,,,,
,,,Александр Кудреватых,2,,"Итак моя история!: Решили разорвать с ними договор 31 марта 2016 - конец месяца все дела) Пришли за 45 минут до конца рабочего дня г киров улица Герцина 1 и что вы думаете нас охрана в офис не пускает говорят все талоны на очередь разобраны записаться на другой день нельзя (типо запись на 5 дней вперед). В итоге с боем прорываемся в офис - в живой очереди на 4 оперетора сидят 2 человека талоны есть. С горем еле еле разорвали договор! 
Больше я к вам не вернусь дорогой дом ру - лучше без интернета чем с таким обслуживанием!!!!!! Обратите внимание на ""ответсвенную "" работу своих  охранников и ""быструю"" работу своих  девушек операторов которые слезно просят не разрывать с ними договор!!!!!!",http://vk.com/id26536565,,,,,,,,,
,,,Надежда Лубянова,2,,"К-сервис я открыла для себя, когда пару лет назад сломался ноут и стал вопрос- где сделать хороший и не дорогой ремонт. Как и все я загуглила в поисковике, листала ссылки, пока мой взгляд не пал на эту компанию. Тогда мне его исправили за сутки! По-моему рекорд. Затем эта компания стала одной из любимых. Покупала там монопод, нтв-рессивер и разные полезные технические мелочи. Очень довольна и хочу поблагодарить всех ответственных сотрудников данной компании.!",http://vk.com/id38795155,,,,,,,,,
,,,Владимир Момотов,2,,"Отличная мотошкола, получил положительные впечатления от учебы, практические занятия проводились в удобное для вас время, не надо подстраиваться под свои дела. Преподаватели все понятно и доступно объясняют. Экзамен сдают все с первого раза, я остался доволен обучением. Те кто ещё не выучились, приходите обучаться не пожалеете!!!",http://vk.com/id103657327,,,,,,,,,
,,,Agropromtehnikaotzyv Агропромтехника,2,,"Отзыв клиента компании ЗАО ""Агропромтехника"":В 2015 году заказали у Агропромтехники топочные блоки косвенного нагрева ТБМ-2,5, вместе с переходниками и горелками. Включили их в зерносушилки ДСП. Доставили, установили, запустили – все отлично работает. В этом году заказали еще 3 единицы ТБМ-2,5, теперь ждем новостей с производственной площадки.",http://twitter.com/Agropromteh_otz,,,,,,,,,
,,,Екатерина Масленкова,2,,"Спасибо вам за новую кухню. Понравилось и качество, и цена, и ваши сотрудники. Все пришло в срок. Кухню собирали сами, при этом трудностей не возникло. Буду советовать вас своим друзьям и знакомым.",http://twitter.com/MaslenkovaK,,,,,,,,,
,,,Александр Рычков,2,,"Отлична мотошкола, грамотные инструктора и современная техника! Обучение очень понравилось, индивидуальный подход и занятия в удобное время. Все на высшем уровне",http://vk.com/id160913790,,,,,,,,,
,,,МОЛОМ -,2,,"Публикуем отзыв нашего клиента Александра Устименко:   
Приняли решение организовать производство резиновой крошки под изготовление покрытий, дорожек и других изделий. Бизнес прибыльный. Под производство купили в ТД «КМЗ» двухвальный шредер ДШ-15. Станок как раз подходи и по мощности, и по производительности. Нареканий в работе шредера нет. Нагрузки всегда высокие, а качество работы не падает. С ТД «КМЗ» также часто связываемся, в основном по приобретению расходников. Производитель держит марку. Рады сотрудничеству.",http://twitter.com/MOLOM_otzyvy,,,,,,,,,
,,,Андрей Вычагжанин,2,,"Обслуживаю свои автомобили в ""Форсаже"" вот уже на протяжении 7 лет. Нареканий никаких нет! Грамотный подход, низкие цены, удобное расположение - в центре города! Хорошие знания устройства автомобиля любой марки.  Широкий спектр услуг: ремонт ДВС, МКПП, подвески, слесарные работы любой сложности, жестяно-сварочные работы на высоком уровне, антикорозийная обработка кузова, диагностика и промывка инжектора... Если Вы еще не нашли хороший автосервис для своего любимого авто, обращайтесь, советую! 
",http://vk.com/id119647240,,,,,,,,,
,,,Наталья Метелева,2,,"""Накрылась"" коробка передач, искала автосервис с выездом на место поломки, машина была не на ходу. Быстро приехали, отремонтировали качественно и не дорого. ",http://vk.com/id16099262,,,,,,,,,
,,,Андрей Воробьев,2,,Помогли решить вопрос по смене управляющей компании и созданию ТСЖ. Также нам помогли выиграть несколько судебных дел по незаконному расходованию средств из фонда текущего ремонта. ,http://twitter.com/Andrey_Vorobyev,,,,,,,,,
,,,МОЛОМ -,2,,"Публикуем отзыв нашего клиента Николая Семенова:
Решили организовать предприятие по переработки бумажных отходов и макулатуры. Бизнес интересный, в нашем регионе достаточно прибыльный. Стали искать поставщика оборудования и остановились на ТД «КМЗ». Для нашей деятельности менеджеры компании подобрали, наверное, самый лучший по качеству и цене вариант станка – одновальный шредер ШГ-3. Также дополнительно приобрели ленточный конвейер для транспортировки продукции. В доставке оборудования задержек не было. Сейчас станок работает стабильно, нагрузки обеспечиваем ему всегда высокие, но производительность не падает. Все в пределах обещанной нормы.",http://twitter.com/MOLOM_otzyvy,,,,,,,,,
